1_Year/AAD/Assignment1/decoder_parallel/simulation/qsim/decoder_parallel.msim.vcd
$comment
	File created using the following command:
		vcd file decoder_parallel.msim.vcd -direction
$end
$date
	Fri Nov 18 15:47:33 2022
$end
$version
	ModelSim Version 2020.1
$end
$timescale
	1ps
$end

$scope module decoder_parallel_vhd_vec_tst $end
$var wire 1 ! m [3] $end
$var wire 1 " m [2] $end
$var wire 1 # m [1] $end
$var wire 1 $ m [0] $end
$var wire 1 % v $end
$var wire 1 & x [7] $end
$var wire 1 ' x [6] $end
$var wire 1 ( x [5] $end
$var wire 1 ) x [4] $end
$var wire 1 * x [3] $end
$var wire 1 + x [2] $end
$var wire 1 , x [1] $end
$var wire 1 - x [0] $end

$scope module i1 $end
$var wire 1 . gnd $end
$var wire 1 / vcc $end
$var wire 1 0 unknown $end
$var wire 1 1 devoe $end
$var wire 1 2 devclrn $end
$var wire 1 3 devpor $end
$var wire 1 4 ww_devoe $end
$var wire 1 5 ww_devclrn $end
$var wire 1 6 ww_devpor $end
$var wire 1 7 ww_x [7] $end
$var wire 1 8 ww_x [6] $end
$var wire 1 9 ww_x [5] $end
$var wire 1 : ww_x [4] $end
$var wire 1 ; ww_x [3] $end
$var wire 1 < ww_x [2] $end
$var wire 1 = ww_x [1] $end
$var wire 1 > ww_x [0] $end
$var wire 1 ? ww_m [3] $end
$var wire 1 @ ww_m [2] $end
$var wire 1 A ww_m [1] $end
$var wire 1 B ww_m [0] $end
$var wire 1 C ww_v $end
$var wire 1 D \m[0]~output_o\ $end
$var wire 1 E \m[1]~output_o\ $end
$var wire 1 F \m[2]~output_o\ $end
$var wire 1 G \m[3]~output_o\ $end
$var wire 1 H \v~output_o\ $end
$var wire 1 I \x[2]~input_o\ $end
$var wire 1 J \x[6]~input_o\ $end
$var wire 1 K \m1|mc2|y~combout\ $end
$var wire 1 L \x[7]~input_o\ $end
$var wire 1 M \x[3]~input_o\ $end
$var wire 1 N \m1|mc3|y~combout\ $end
$var wire 1 O \x[0]~input_o\ $end
$var wire 1 P \x[4]~input_o\ $end
$var wire 1 Q \m1|mc0|y~combout\ $end
$var wire 1 R \x[5]~input_o\ $end
$var wire 1 S \x[1]~input_o\ $end
$var wire 1 T \m1|mc1|y~combout\ $end
$var wire 1 U \m1|mvalid|y~0_combout\ $end
$var wire 1 V \m3|mc1|y~0_combout\ $end
$var wire 1 W \m3|mc3|y~0_combout\ $end
$var wire 1 X \m3|mc0|y~0_combout\ $end
$var wire 1 Y \m3|mc2|y~0_combout\ $end
$var wire 1 Z \m3|mvalid|y~0_combout\ $end
$var wire 1 [ \m2|mc2|y~combout\ $end
$var wire 1 \ \m2|mc3|y~combout\ $end
$var wire 1 ] \m2|mc0|y~combout\ $end
$var wire 1 ^ \m2|mc1|y~combout\ $end
$var wire 1 _ \m2|mvalid|y~0_combout\ $end
$var wire 1 ` \m1|m1|y~0_combout\ $end
$var wire 1 a \m1_final|y~0_combout\ $end
$var wire 1 b \m2|m1|y~0_combout\ $end
$var wire 1 c \m2_final|y~0_combout\ $end
$var wire 1 d \m0|xor_z6y6|y~combout\ $end
$var wire 1 e \m3|m1|y~0_combout\ $end
$var wire 1 f \m3_final|y~combout\ $end
$var wire 1 g \m0|popCntOp|hA01|and20|y~combout\ $end
$var wire 1 h \m0|xor_z7y7|y~0_combout\ $end
$var wire 1 i \m0|popCntOp|fA10|fA0|and20|y~combout\ $end
$var wire 1 j \valid|y~0_combout\ $end
$var wire 1 k \m0|popCntOp|fA10|hA0|and20|y~combout\ $end
$var wire 1 l \m0|popCntOp|fA20|fA10|or20|y~1_combout\ $end
$var wire 1 m \m0|popCntOp|fA20|fA10|or20|y~0_combout\ $end
$var wire 1 n \m0|popCntOp|fA20|hA0|and20|y~combout\ $end
$var wire 1 o \m0|popCntOp|hA02|and20|y~combout\ $end
$var wire 1 p \m0|popCntOp|fA20|fA10|or20|y~2_combout\ $end
$var wire 1 q \m0|popCntOp|fA11|fA0|and20|y~combout\ $end
$var wire 1 r \m0|xor_m3Op|y~combout\ $end
$var wire 1 s \valid|ALT_INV_y~0_combout\ $end
$upscope $end
$upscope $end
$enddefinitions $end
#0
$dumpvars
1%
0.
1/
x0
11
12
13
14
15
16
1C
0D
0E
0F
0G
1H
0I
0J
0K
0L
0M
0N
0O
0P
0Q
0R
0S
0T
1U
0V
0W
0X
0Y
1Z
0[
0\
0]
0^
1_
0`
0a
0b
0c
0d
0e
0f
0g
0h
0i
0j
0k
0l
0m
0n
0o
0p
0q
0r
1s
0&
0'
0(
0)
0*
0+
0,
0-
07
08
09
0:
0;
0<
0=
0>
0?
0@
0A
0B
0!
0"
0#
0$
$end
#50000
1'
1)
1+
1-
1>
1<
1:
18
1J
1P
1I
1O
1X
1h
1V
1Y
1W
1m
1k
1e
1f
1l
1p
0h
0k
0m
0p
0l
1r
1G
0r
1?
1!
1D
1B
0D
1$
0B
0$
#110000
0'
0+
1(
1,
1=
0<
19
08
0J
1R
0I
1S
0X
1^
1d
0V
1]
0Y
1\
0W
1[
1m
1k
1b
0e
0f
1c
1l
1p
0d
0k
0m
0p
0l
1r
1F
0G
0r
1@
0?
1"
0!
1D
1B
0D
1$
0B
0$
#170000
1'
1+
0)
0-
0>
1<
0:
18
1J
0P
1I
0O
1X
1h
1V
1Y
1W
1m
1k
1e
1f
1l
1p
0h
0k
0m
0p
0l
1r
1G
0r
1?
1!
1D
1B
0D
1$
0B
0$
#220000
0'
1-
0(
1*
1>
1;
09
08
0J
0R
1M
1O
1Q
0X
0]
1h
1N
0V
0^
1T
0Y
0\
1K
0W
0[
1m
1k
0b
0e
1`
1a
0f
0c
1l
1p
0k
0m
0h
0p
0l
1r
0F
0G
1E
0r
0@
0?
1A
1#
0"
0!
1D
1B
0D
1$
0B
0$
#280000
1'
0-
0+
1)
0>
0<
1:
18
1J
1P
0I
0O
1X
1h
1V
1Y
1W
1m
1k
1e
1f
1l
1p
0h
0k
0m
0p
0l
1r
1G
0r
1?
1!
1D
1B
0D
1$
0B
0$
#350000
0'
1+
1(
0,
0=
1<
19
08
0J
1R
1I
0S
0X
1^
1d
0V
1]
0Y
1\
0W
1[
1m
1k
1b
0e
0f
1c
1l
1p
0d
0k
0m
0p
0l
1r
1F
0G
0r
1@
0?
1"
0!
1D
1B
0D
1$
0B
0$
#410000
1'
0+
1-
0)
1>
0<
0:
18
1J
0P
0I
1O
1X
1h
1V
1Y
1W
1m
1k
1e
1f
1l
1p
0h
0k
0m
0p
0l
1r
1G
0r
1?
1!
1D
1B
0D
1$
0B
0$
#460000
1+
1)
1,
1&
1=
1<
1:
17
1L
1P
1I
1S
0T
0X
0^
1d
0K
0V
0]
0Q
0Y
0[
0N
0W
0\
1m
1k
0b
0e
0`
0a
0f
0c
1l
1p
0k
1o
1g
1h
1i
0p
1q
0l
1r
0F
0G
0E
0@
0?
0A
0#
0"
0!
1D
1B
1$
#520000
0+
0)
0'
0-
0>
0<
0:
08
0J
0P
0I
0O
1X
0h
1V
0g
1Y
0o
1W
0m
0q
1m
1k
0i
1e
1f
0r
1l
1p
1g
1h
0k
1o
0p
1q
1i
0l
1r
0D
1G
0B
1?
0$
1!
1D
1B
1$
#570000
1+
1'
0,
0(
0=
1<
09
18
1J
0R
1I
0S
0X
1^
0d
0V
1]
0g
0Y
1\
0o
0W
1[
0m
0q
1m
1k
0i
1b
0e
0f
1c
0r
1l
1p
1d
1g
0k
1o
0p
1q
1i
0l
1r
0D
1F
0G
0B
1@
0?
0$
1"
0!
1D
1B
1$
#620000
0+
0'
1)
1-
1>
0<
1:
08
0J
1P
0I
1O
1X
0h
1V
0g
1Y
0o
1W
0m
0q
1m
1k
0i
1e
1f
0r
1l
1p
1g
1h
0k
1o
0p
1q
1i
0l
1r
0D
1G
0B
1?
0$
1!
1D
1B
1$
#660000
1'
0-
1(
0*
0>
0;
19
18
1J
1R
0M
0O
1Q
0X
0]
0h
1N
0V
0^
0g
1T
0Y
0\
0o
1K
0W
0[
0m
0q
1m
1k
0i
0b
0e
1`
1a
0f
0c
0r
1l
1p
0k
1o
1g
1h
1i
0p
1q
0l
1r
0D
0F
0G
1E
0B
0@
0?
1A
0$
1#
0"
0!
1D
1B
1$
#710000
0'
1-
1+
0)
1>
1<
0:
08
0J
0P
1I
1O
1X
0h
1V
0g
1Y
0o
1W
0m
0q
1m
1k
0i
1e
1f
0r
1l
1p
1g
1h
0k
1o
0p
1q
1i
0l
1r
0D
1G
0B
1?
0$
1!
1D
1B
1$
#760000
1'
0+
0(
1,
1=
0<
09
18
1J
0R
0I
1S
0X
1^
0d
0V
1]
0g
0Y
1\
0o
0W
1[
0m
0q
1m
1k
0i
1b
0e
0f
1c
0r
1l
1p
1d
1g
0k
1o
0p
1q
1i
0l
1r
0D
1F
0G
0B
1@
0?
0$
1"
0!
1D
1B
1$
#830000
0'
1+
0-
1)
0>
1<
1:
08
0J
1P
1I
0O
1X
0h
1V
0g
1Y
0o
1W
0m
0q
1m
1k
0i
1e
1f
0r
1l
1p
1g
1h
0k
1o
0p
1q
1i
0l
1r
0D
1G
0B
1?
0$
1!
1D
1B
1$
